v 20110115 2
L 1300 600 1400 600 3 0 0 0 -1 -1
L 1400 600 1400 800 3 0 0 0 -1 -1
L 1600 800 1400 800 3 0 0 0 -1 -1
L 1600 800 1600 600 3 0 0 0 -1 -1
L 1600 600 1800 600 3 0 0 0 -1 -1
L 1800 600 1800 800 3 0 0 0 -1 -1
L 1800 800 1900 800 3 0 0 0 -1 -1
L 1300 300 1500 300 3 0 0 0 -1 -1
L 1500 300 1500 500 3 0 0 0 -1 -1
L 1500 500 1700 500 3 0 0 0 -1 -1
L 1700 500 1700 300 3 0 0 0 -1 -1
L 1700 300 1900 300 3 0 0 0 -1 -1
P 500 600 700 600 1 0 0
{
T 3400 700 5 10 0 0 0 0 1
pintype=pas
T 605 645 5 10 1 1 0 6 1
pinnumber=A
T 2500 700 5 10 0 0 0 0 1
pinseq=0
}
P 500 300 700 300 1 0 0
{
T 3400 300 5 10 0 0 0 0 1
pintype=pas
T 605 345 5 10 1 1 0 6 1
pinnumber=B
T 2500 300 5 10 0 0 0 0 1
pinseq=1
}
P 2200 500 2000 500 1 0 0
{
T -700 500 5 10 0 0 0 6 1
pintype=pas
T 2095 545 5 10 1 1 0 0 1
pinnumber=C
T 2500 500 5 10 0 0 0 0 1
pinseq=2
}
B 700 200 1300 700 3 0 0 0 -1 -1 0 -1 -1 -1 -1 -1
L 1100 0 2100 1100 3 0 0 0 -1 -1
L 2000 1100 2100 1100 3 0 0 0 -1 -1
L 2100 1100 2100 1000 3 0 0 0 -1 -1
L 800 600 900 600 3 0 0 0 -1 -1
L 1100 600 1200 600 3 0 0 0 -1 -1
L 800 300 900 300 3 0 0 0 -1 -1
L 1100 300 1200 300 3 0 0 0 -1 -1
L 900 600 1100 800 3 0 0 0 -1 -1
L 1100 600 1100 700 3 0 0 0 -1 -1
L 900 300 1100 500 3 0 0 0 -1 -1
L 1100 300 1100 400 3 0 0 0 -1 -1
T 764 1700 8 10 0 0 0 0 1
device=Encoder
T 1700 1000 8 10 1 1 0 0 1
refdes=U?
T 700 1500 8 10 0 0 0 0 1
description=Pulse Encoder
T 700 1000 9 10 1 0 0 0 1
Encoder
