v 20110115 2
C 40000 40000 0 0 0 title-B.sym
C 40400 43900 1 270 0 EMBEDDED74595-1.sym
[
T 43050 43600 9 10 1 0 270 0 1
74595
T 44050 43600 5 10 0 0 270 0 1
net=GND:8
T 43850 43600 5 10 0 0 270 0 1
net=Vcc:16
T 43650 43600 5 10 0 0 270 0 1
numslots=0
T 44250 43600 5 10 0 0 270 0 1
description=8-bit serial shift register with 3-state output register
T 43450 43600 5 10 0 0 270 0 1
footprint=DIP16
T 44450 43600 5 10 0 0 270 0 1
documentation=http://www-s.ti.com/sc/ds/sn74hc595.pdf
T 43100 42200 8 10 0 1 270 6 1
refdes=U?
T 43240 43600 5 10 0 0 270 0 1
device=74595
L 42400 43500 42325 43600 3 0 0 0 -1 -1
L 42400 43500 42475 43600 3 0 0 0 -1 -1
L 41800 43500 41725 43600 3 0 0 0 -1 -1
L 41800 43500 41875 43600 3 0 0 0 -1 -1
V 42700 43650 50 6 0 0 0 -1 -1 0 -1 -1 -1 -1 -1
B 40400 42200 2600 1400 3 0 0 0 -1 -1 0 -1 -1 -1 -1 -1
P 40600 43900 40600 43600 1 0 0
{
T 40650 43700 5 8 1 1 270 6 1
pinnumber=9
T 40550 43700 5 8 0 1 270 8 1
pinseq=9
T 40600 43550 9 8 1 1 270 0 1
pinlabel=QHs
T 40600 43550 5 8 0 1 270 2 1
pintype=out
}
P 42100 43900 42100 43700 1 0 0
{
T 42150 43700 5 8 1 1 270 6 1
pinnumber=10
T 42050 43700 5 8 0 1 270 8 1
pinseq=10
T 42100 43550 9 8 1 1 270 0 1
pinlabel=SRCLR
T 42100 43550 5 8 0 1 270 2 1
pintype=in
}
V 42100 43650 50 6 0 0 0 -1 -1 0 -1 -1 -1 -1 -1
P 41500 42200 41500 41900 1 0 1
{
T 41550 42100 5 8 1 1 270 0 1
pinnumber=4
T 41450 42100 5 8 0 1 270 2 1
pinseq=4
T 41500 42250 9 8 1 1 270 6 1
pinlabel=QE
T 41500 42250 5 8 0 1 270 8 1
pintype=tri
}
P 41200 42200 41200 41900 1 0 1
{
T 41250 42100 5 8 1 1 270 0 1
pinnumber=5
T 41150 42100 5 8 0 1 270 2 1
pinseq=5
T 41200 42250 9 8 1 1 270 6 1
pinlabel=QF
T 41200 42250 5 8 0 1 270 8 1
pintype=tri
}
P 40900 42200 40900 41900 1 0 1
{
T 40950 42100 5 8 1 1 270 0 1
pinnumber=6
T 40850 42100 5 8 0 1 270 2 1
pinseq=6
T 40900 42250 9 8 1 1 270 6 1
pinlabel=QG
T 40900 42250 5 8 0 1 270 8 1
pintype=tri
}
P 40600 42200 40600 41900 1 0 1
{
T 40650 42100 5 8 1 1 270 0 1
pinnumber=7
T 40550 42100 5 8 0 1 270 2 1
pinseq=7
T 40600 42250 9 8 1 1 270 6 1
pinlabel=QH
T 40600 42250 5 8 0 1 270 8 1
pintype=tri
}
P 41800 42200 41800 41900 1 0 1
{
T 41850 42100 5 8 1 1 270 0 1
pinnumber=3
T 41750 42100 5 8 0 1 270 2 1
pinseq=3
T 41800 42250 9 8 1 1 270 6 1
pinlabel=QD
T 41800 42250 5 8 0 1 270 8 1
pintype=tri
}
P 42100 42200 42100 41900 1 0 1
{
T 42150 42100 5 8 1 1 270 0 1
pinnumber=2
T 42050 42100 5 8 0 1 270 2 1
pinseq=2
T 42100 42250 9 8 1 1 270 6 1
pinlabel=QC
T 42100 42250 5 8 0 1 270 8 1
pintype=tri
}
P 42400 42200 42400 41900 1 0 1
{
T 42450 42100 5 8 1 1 270 0 1
pinnumber=1
T 42350 42100 5 8 0 1 270 2 1
pinseq=1
T 42400 42250 9 8 1 1 270 6 1
pinlabel=QB
T 42400 42250 5 8 0 1 270 8 1
pintype=tri
}
P 42700 42200 42700 41900 1 0 1
{
T 42750 42100 5 8 1 1 270 0 1
pinnumber=15
T 42650 42100 5 8 0 1 270 2 1
pinseq=15
T 42700 42250 9 8 1 1 270 6 1
pinlabel=QA
T 42700 42250 5 8 0 1 270 8 1
pintype=tri
}
P 41500 43900 41500 43600 1 0 0
{
T 41550 43700 5 8 1 1 270 6 1
pinnumber=14
T 41450 43700 5 8 0 1 270 8 1
pinseq=14
T 41500 43550 9 8 1 1 270 0 1
pinlabel=SER
T 41500 43550 5 8 0 1 270 2 1
pintype=in
}
P 41800 43900 41800 43600 1 0 0
{
T 41850 43700 5 8 1 1 270 6 1
pinnumber=11
T 41750 43700 5 8 0 1 270 8 1
pinseq=11
T 41800 43500 9 8 1 1 270 0 1
pinlabel=SRCLK
T 41800 43500 5 8 0 1 270 2 1
pintype=clk
}
P 42400 43900 42400 43600 1 0 0
{
T 42450 43700 5 8 1 1 270 6 1
pinnumber=12
T 42350 43700 5 8 0 1 270 8 1
pinseq=12
T 42400 43500 9 8 1 1 270 0 1
pinlabel=RCLK
T 42400 43500 5 8 0 1 270 2 1
pintype=clk
}
P 42700 43900 42700 43700 1 0 0
{
T 42750 43700 5 8 1 1 270 6 1
pinnumber=13
T 42650 43700 5 8 0 1 270 8 1
pinseq=13
T 42700 43550 9 8 1 1 270 0 1
pinlabel=G
T 42700 43550 5 8 0 1 270 2 1
pintype=in
}
]
{
T 43240 43600 5 10 0 0 270 0 1
device=74595
T 43200 43700 5 10 1 1 0 6 1
refdes=U2
T 43450 43600 5 10 0 0 270 0 1
footprint=DIP16
}
C 55000 46700 1 0 0 relay-1.sym
{
T 55700 49050 5 10 0 1 0 0 1
device=RELAY
T 56800 49050 5 10 1 1 0 0 1
refdes=U7
}
C 46400 43900 1 270 0 74595-1.sym
{
T 49240 43600 5 10 0 0 270 0 1
device=74595
T 49200 43700 5 10 1 1 0 6 1
refdes=U5
T 49450 43600 5 10 0 0 270 0 1
footprint=DIP16
}
C 49400 43900 1 270 0 74595-1.sym
{
T 52240 43600 5 10 0 0 270 0 1
device=74595
T 52200 43700 5 10 1 1 0 6 1
refdes=U6
T 52450 43600 5 10 0 0 270 0 1
footprint=DIP16
}
C 43400 43900 1 270 0 74595-1.sym
{
T 46240 43600 5 10 0 0 270 0 1
device=74595
T 46200 43700 5 10 1 1 0 6 1
refdes=U4
T 46450 43600 5 10 0 0 270 0 1
footprint=DIP16
}
C 50300 47800 1 0 0 encoder.sym
{
T 51064 49500 5 10 0 0 0 0 1
device=Encoder
T 51900 48800 5 10 1 1 0 0 1
refdes=U3
}
C 49100 49000 1 90 0 resistor-2.sym
{
T 48750 49400 5 10 0 0 90 0 1
device=RESISTOR
T 49400 49300 5 10 1 1 180 0 1
refdes=R1
T 49100 49000 5 10 1 1 0 0 1
value=10K
}
C 40100 50300 1 0 0 vcc-1.sym
N 40300 50300 40300 46600 4
N 40300 46600 40900 46600 4
C 50100 49000 1 90 0 resistor-2.sym
{
T 49750 49400 5 10 0 0 90 0 1
device=RESISTOR
T 50400 49300 5 10 1 1 180 0 1
refdes=R2
T 50100 49000 5 10 1 1 0 0 1
value=10K
}
N 50000 49000 50000 48100 4
C 54400 43300 1 0 0 gnd-1.sym
C 53500 48500 1 270 0 led-2.sym
{
T 53700 47700 5 10 1 1 0 0 1
refdes=D1
T 54100 48400 5 10 0 0 270 0 1
device=LED
}
C 53700 46700 1 90 0 resistor-2.sym
{
T 53350 47100 5 10 0 0 90 0 1
device=RESISTOR
T 54000 47000 5 10 1 1 180 0 1
refdes=R3
T 53700 46700 5 10 1 1 0 0 1
value=300
}
N 53600 46700 53600 46000 4
C 52400 48000 1 0 0 gnd-1.sym
N 49000 49000 49000 48400 4
N 49000 49900 49000 50300 4
N 50000 49900 50000 50300 4
N 50500 46300 50500 43900 4
N 49600 43900 49600 44500 4
N 49600 44500 47500 44500 4
N 47500 44500 47500 43900 4
N 46600 43900 46600 44500 4
N 46600 44500 44500 44500 4
N 44500 44500 44500 43900 4
N 43600 43900 43600 44500 4
N 43600 44500 41500 44500 4
N 41500 44500 41500 43900 4
N 50800 43900 50800 46600 4
N 41800 43900 41800 44800 4
N 41800 44800 50800 44800 4
N 47800 43900 47800 44800 4
N 44800 43900 44800 44800 4
N 50800 46600 44500 46600 4
N 44500 49300 50500 46300 4
C 40200 45400 1 0 0 gnd-1.sym
N 51700 43900 51700 47500 4
N 42700 45700 51700 45700 4
N 48700 43900 48700 45700 4
N 45700 43900 45700 45700 4
N 42700 43900 42700 45700 4
N 42100 43900 42100 45100 4
N 42100 45100 51100 45100 4
N 51100 43900 51100 46900 4
N 48100 43900 48100 45100 4
N 45100 43900 45100 45100 4
N 44500 48100 50800 48100 4
N 44500 48400 50800 48400 4
C 40900 46100 1 0 0 attiny24.sym
{
T 41200 50240 5 10 0 0 0 0 1
device=ATTiny24
T 44200 50000 5 10 1 1 0 6 1
refdes=U1
T 41200 50450 5 10 0 0 0 0 1
footprint=DIP14
}
N 51100 46900 44500 46900 4
N 51400 43900 51400 47200 4
N 51400 47200 44500 47200 4
N 42400 45400 51400 45400 4
N 48400 45400 48400 43900 4
N 45400 45400 45400 43900 4
N 42400 45400 42400 43900 4
N 51700 47500 44500 47500 4
U 52700 41900 40600 41900 10 0
C 48100 49800 1 180 0 jack.sym
C 46600 48800 1 0 0 gnd-1.sym
C 45500 49000 1 0 0 resistor-2.sym
{
T 45900 49350 5 10 0 0 0 0 1
device=RESISTOR
T 46000 48800 5 10 1 1 0 0 1
refdes=75K
}
N 44500 49600 46700 49600 4
N 46700 49800 46700 50300 4
N 53000 44500 53900 44500 4
C 54700 47600 1 90 0 diode-1.sym
{
T 54100 48000 5 10 0 0 90 0 1
device=DIODE
T 54800 47800 5 10 1 1 180 0 1
refdes=D2
}
N 54500 48500 54500 50300 4
N 54500 47600 54500 45000 4
C 40100 46600 1 270 0 capacitor-1.sym
{
T 40800 46400 5 10 0 0 270 0 1
device=CAPACITOR
T 40300 45900 5 10 1 1 0 0 1
refdes=C1
T 41000 46400 5 10 0 0 270 0 1
symversion=0.1
T 40300 45700 5 10 1 1 0 0 1
value=100nF
}
C 48300 50000 1 270 0 capacitor-1.sym
{
T 49000 49800 5 10 0 0 270 0 1
device=CAPACITOR
T 48200 49300 5 10 1 1 0 0 1
refdes=C2
T 49200 49800 5 10 0 0 270 0 1
symversion=0.1
T 47900 49100 5 10 1 1 0 0 1
value=100nF
}
N 53600 48500 53600 50300 4
N 54500 44000 54500 43600 4
C 40800 45400 1 0 0 gnd-1.sym
C 45400 48800 1 0 0 gnd-1.sym
N 48500 50000 46700 50000 4
C 48400 48800 1 0 0 gnd-1.sym
N 46700 49100 46700 49400 4
N 46400 49100 46400 49600 4
N 40900 45700 40900 46300 4
N 40300 50300 54500 50300 4
N 55300 49500 54500 49500 4
N 55300 46700 54500 46700 4
N 53600 46000 54500 46000 4
C 53900 44000 1 0 0 npn-3.sym
{
T 54800 44500 5 10 0 0 0 0 1
device=NPN_TRANSISTOR
T 54800 44500 5 10 1 1 0 0 1
refdes=Q1
}
C 53100 43400 1 90 0 resistor-2.sym
{
T 52750 43800 5 10 0 0 90 0 1
device=RESISTOR
T 53400 43700 5 10 1 1 180 0 1
refdes=R5
T 53100 43400 5 10 1 1 0 0 1
value=10K
}
C 52900 43100 1 0 0 gnd-1.sym
C 53100 44700 1 90 0 resistor-2.sym
{
T 52750 45100 5 10 0 0 90 0 1
device=RESISTOR
T 53400 45000 5 10 1 1 180 0 1
refdes=R4
T 53100 44700 5 10 1 1 0 0 1
value=1K
}
N 53000 44700 53000 44300 4
N 53000 45600 53000 47800 4
N 53000 47800 44500 47800 4
